[

	{
		"controller": "Karyawan",
		"fields": [
			{
				"name": "user"
			},
			{
				"name": "nik",
				"label": "NIK"
			},
			{
				"name": "kontrak_kerja",
				"label": "Kontrak Kerja",
				"options":["KOPERSEMAR", "PT SEM"]
			},
			{
				"name": "nama"
			},
			{
				"name": "no_kk",
				"label": "No. KK"
			},
			{
				"name": "status_perkawinan",
				"label": "Status Perkawinan",
				"options":["TIDAK KAWIN", "KAWIN"]
			},
			{
				"name": "jumlah_anak",
				"label": "Jumlah Anak",
				"type": "int"
			},
			{
				"name": "no_ktp",
				"label": "No. KTP"
			},
			{
				"name": "alamat"
			},
			{
				"name": "tempat_lahir",
				"label": "Tempat Lahir"
			},
			{
				"name": "tanggal_lahir",
				"label": "Tanggal Lahir",
				"type": "date"
			},
			{
				"name": "tanggal_masuk",
				"label": "Tanggal Masuk",
				"type": "date"
			},
			{
				"name": "bagian",
				"type": "relation",
				"model": "Bagians",
				"field": "nama"
			}
		]
	},

	{
		"controller": "Gaji",
		"fields": [
			{
				"name": "karyawan"
			},
			{
				"name": "gapok",
				"label": "Gaji Pokok",
				"type": "int"
			},
			{
				"name": "hari_kerja_per_bulan",
				"label": "Hari Kerja",
				"type": "int"
			},
			{
				"name": "uang_makan",
				"label": "Uang Makan",
				"type": "int"
			},
			{
				"name": "kompensasi",
				"type": "int"
			},
			{
				"name": "tunjangan_lokasi",
				"label": "Tunjangan Lokasi",
				"type": "int"
			},
			{
				"name": "tunjangan_jabatan",
				"label": "Tunjangan Jabatan",
				"type": "int"
			},
			{
				"name": "lembur",
				"type": "int"
			},
			{
				"name": "bpjs_tk",
				"label": "BPJS Tenaga Kerja",
				"type": "int"
			},
			{
				"name": "simpan_pinjam",
				"label": "Simpan Pinjam",
				"type": "int"
			},
			{
				"name": "konsinyasi",
				"type": "int"
			},
			{
				"name": "pot_toko",
				"label": "POT Toko",
				"type": "int"
			},
			{
				"name": "palugada",
				"type": "int"
			},
			{
				"name": "emergency",
				"type": "int"
			}
		]
	},

	{
		"controller": "Bagian",
		"fields": [
			{
				"name": "nama"
			}
		]
	}

]